# INTRODUCTION
In this project, I worked with two datasets and performed various functions and operators. I also created plots and graphs as part of the project. Exploring packages such as tidyverse, janitor, and ggplot expanded my toolkit and enhanced the efficiency of data analysis. My main objective in completing this project was to gain a thorough understanding of all the packages and operators I used. Graphical visualization played a pivotal role in presenting my findings effectively.
## KEY-FINDINGS
## Part-1: - Countries GPD
### Problem 5: -
In this code, I have loaded the janitor package, in which I have used the "clean_names" function. Janitor is used for initial data exploration and cleaning, particularly for restructuring the data frame and addressing problematic variable names.
#### Clean column names for better structure of the data frame
data_2015 <- clean_names(data_2015)
#### A tibble: 158 × 13
   country      region     happiness_rank happiness_score standard_error economy_gdp_per_capita family health_life_expectancy
   <chr>        <chr>                 <dbl>           <dbl>           <dbl>                  <dbl> <dbl>                  <dbl>
 1 Switzerland  Western Europe          1             7.59            0.0341                  1.40  1.35                  0.941
 2 Iceland      Western Europe          2             7.56            0.0488                  1.30  1.40                  0.948
 3 Denmark      Western Europe          3             7.53            0.0333                  1.33  1.36                  0.875
 4 Norway       Western Europe          4             7.52            0.0388                  1.46  1.33                  0.885
 5 Canada       North America           5             7.43            0.0355                  1.33  1.32                  0.906
 6 Finland      Western Europe          6             7.41            0.0314                  1.29  1.32                  0.889
 7 Netherlands  Western Europe          7             7.38            0.0280                  1.33  1.28                  0.893
 8 Sweden       Western Europe          8             7.36            0.0316                  1.33  1.29                  0.911
 9 New Zealand  Australia & NZ          9             7.29            0.0337                  1.25  1.32                  0.908
10 Australia    Australia & NZ         10             7.28            0.0408                  1.33  1.31                  0.932
#### ℹ 148 more rows
#### ℹ 5 more variables: freedom <dbl>, trust_government_corruption <dbl>, generosity <dbl>, dystopia_residual <dbl>, gff_stat <dbl>
…
